…
``` r
remotes::install_github("jtrecenti/bnmp")
```

## Example

This is a basic example which shows you how to solve a common problem:

``` r
library(bnmp)

id_uf <- 26

listar_municipios(id_uf)
#> # A tibble: 935 × 5
#>       id nome                     cod_ibge flg_distrito id_corporativo
#>    <int> <chr>                       <int> <lgl>                 <int>
#>  1  8610 Adamantina                3500105 FALSE                    30
#>  2  8611 Adolfo                    3500204 FALSE                    32
#>  3  8612 Agisse - Distrito              NA TRUE                     NA
#>  4  8613 Agua Vermelha - Distrito       NA TRUE                     NA
#>  5  8614 Aguai                     3500303 FALSE                    62
#>  6  8615 Aguas Da Prata            3500402 FALSE                    65
#>  7  8616 Aguas De Lindoia          3500501 FALSE                    67
#>  8  8617 Aguas De Santa Barbara    3500550 FALSE                    68
#>  9  8618 Aguas De Sao Pedro        3500600 FALSE                    69
#> 10  8619 Agudos                    3500709 FALSE                    76
#> # ℹ 925 more rows
```
…
